%YAML 1.1
%TAG !u! tag:unity3d.com,2011:
--- !u!114 &11400000
MonoBehaviour:
  m_ObjectHideFlags: 0
  m_CorrespondingSourceObject: {fileID: 0}
  m_PrefabInstance: {fileID: 0}
  m_PrefabAsset: {fileID: 0}
  m_GameObject: {fileID: 0}
  m_Enabled: 1
  m_EditorHideFlags: 0
  m_Script: {fileID: 11500000, guid: b5fdf6043178d9e468f44d85ec0239df, type: 3}
  m_Name: Level01
  m_EditorClassIdentifier: 
  enemiesInRow: 7
  numberOfRows: 2
  stepBetween: 1
  movementSpeed: 0.5
  speedIncreaseValue: 1
  maxEnemiesShooting: 3
